{
  "apps": [
    {
      "name": "price",
      "script": "build/server.js",
      "instances": "max",
      "min_uptime": "300s",
      "max_restarts": 10,
      "max_memory_restart": "1G",
      "exec_mode": "cluster_mode",
      "autorestart": true,
      "out_file": "/dev/null",
      "error_file": "/dev/null",
      "env": {
        "NODE_ENV": "production"
      }
    }
  ]
}
